<?xml version="1.0" encoding="utf-8"?>
<COLLADA xmlns="http://www.collada.org/2005/11/COLLADASchema" version="1.4.1">
  <asset>
    <contributor>
      <author>Blender User</author>
      <authoring_tool>Blender 2.65.0 r53189</authoring_tool>
    </contributor>
    <created>2013-01-08T19:07:41</created>
    <modified>2013-01-08T19:07:41</modified>
    <unit name="meter" meter="1"/>
    <up_axis>Z_UP</up_axis>
  </asset>
  <library_images>
    <image id="HomerShieldDiffuseAlphalla2_PNG" name="HomerShieldDiffuseAlphalla2_PNG">
      <init_from>HomerShieldDiffuseAlphalla2.PNG</init_from>
    </image>
  </library_images>
  <library_effects>
    <effect id="Material_003-effect">
      <profile_COMMON>
        <newparam sid="HomerShieldDiffuseAlphalla2_PNG-surface">
          <surface type="2D">
            <init_from>HomerShieldDiffuseAlphalla2_PNG</init_from>
          </surface>
        </newparam>
        <newparam sid="HomerShieldDiffuseAlphalla2_PNG-sampler">
          <sampler2D>
            <source>HomerShieldDiffuseAlphalla2_PNG-surface</source>
          </sampler2D>
        </newparam>
        <technique sid="common">
          <phong>
            <emission>
              <color sid="emission">0 0 0 1</color>
            </emission>
            <ambient>
              <color sid="ambient">0 0 0 1</color>
            </ambient>
            <diffuse>
              <texture texture="HomerShieldDiffuseAlphalla2_PNG-sampler"/>
            </diffuse>
            <specular>
              <color sid="specular">0.4070552 0.3627852 0.6320755 1</color>
            </specular>
            <shininess>
              <float sid="shininess">34</float>
            </shininess>
            <transparent>
              <texture texture="HomerShieldDiffuseAlphalla2_PNG-sampler"/>
            </transparent>
            <transparency>
              <float sid="transparency">0</float>
            </transparency>
            <index_of_refraction>
              <float sid="index_of_refraction">1</float>
            </index_of_refraction>
          </phong>
        </technique>
        <extra>
          <technique profile="GOOGLEEARTH">
            <double_sided>1</double_sided>
          </technique>
        </extra>
      </profile_COMMON>
      <extra><technique profile="MAX3D"><double_sided>1</double_sided></technique></extra>
    </effect>
  </library_effects>
  <library_materials>
    <material id="Material_003-material" name="Material_003">
      <instance_effect url="#Material_003-effect"/>
    </material>
  </library_materials>
  <library_geometries>
    <geometry id="shield-mesh" name="shield">
      <mesh>
        <source id="shield-mesh-positions">
          <float_array id="shield-mesh-positions-array" count="492">-4.142933 -4.138989 -1.37927 -4.154952 -4.077929 -0.1402504 -4.154489 -3.635763 0.5349789 -3.024945 -5.255991 2.251995 -1.793999 -6.097887 2.872579 -4.12917 -3.574322 -1.930776 -3.024945 -4.92944 -3.065687 -1.793999 -5.543145 -4.061097 4.142933 -4.138989 -1.37927 4.154952 -4.077929 -0.1402504 -0.004379093 -6.5069 3.164764 4.154489 -3.635763 0.5349789 3.024945 -5.255991 2.251995 1.793999 -6.097887 2.872579 -0.004379093 -5.962531 -4.258596 4.12917 -3.574322 -1.930776 3.024945 -4.92944 -3.065687 1.793999 -5.543143 -4.0611 -4.240128 -3.938059 -0.2080271 -4.240128 -3.983087 -1.367362 -3.024945 -5.184281 2.410018 -4.240128 -3.434622 0.5702197 -1.793999 -6.025238 3.029081 -0.004379093 -6.433863 3.321131 -3.024945 -4.83522 -3.211267 -4.240128 -3.344598 -1.962911 -1.793999 -5.441689 -4.203215 -0.004379093 -5.866461 -4.401907 4.240128 -3.938059 -0.2080271 4.240128 -3.983087 -1.367362 3.024945 -5.184281 2.410018 4.240128 -3.434622 0.5702197 1.793999 -6.025238 3.029081 3.024945 -4.83522 -3.211267 4.240128 -3.344598 -1.962911 1.793999 -5.441689 -4.203215 -3.024906 -5.776348 -1.582689 -3.024906 -5.777637 0.6924726 -1.793961 -6.745978 -2.224238 -1.793961 -6.763982 1.035356 -0.004340529 -7.214924 -2.224238 -0.004340529 -7.240664 1.193601 3.024983 -5.776348 -1.582689 3.024983 -5.777637 0.6924726 1.794038 -6.745978 -2.224238 1.794038 -6.763982 1.035356 -4.142895 -3.983084 -1.445719 -4.154914 -3.922024 -0.2066999 -3.024906 -5.100086 2.185546 -4.15445 -3.479858 0.4685295 -1.793961 -5.941981 2.80613 -0.004340529 -6.350995 3.098314 -3.024906 -4.773535 -3.132136 -4.129132 -3.418417 -1.997225 -1.793961 -5.387239 -4.127546 -0.004340529 -5.806625 -4.325046 4.142972 -3.983084 -1.445719 4.154991 -3.922024 -0.2066999 3.024983 -5.100086 2.185546 4.154527 -3.479858 0.4685295 1.794038 -5.941981 2.806129 3.024983 -4.773535 -3.132136 4.129209 -3.418417 -1.997225 1.794038 -5.387237 -4.127549 -4.163099 -3.824203 -0.2241152 -4.163099 -3.868178 -1.356349 -2.976322 -5.041292 2.332729 -4.163099 -3.332535 0.5359389 -1.774152 -5.862591 2.93732 -0.02636659 -6.261664 3.222543 -2.976322 -4.700391 -3.15715 -4.163099 -3.244615 -1.937976 -1.774152 -5.292683 -4.125909 -0.02636659 -5.707525 -4.319957 4.118919 -3.824203 -0.2241152 4.118919 -3.868178 -1.356349 2.932142 -5.041292 2.332729 4.118919 -3.332535 0.5359389 1.729972 -5.862591 2.93732 2.932142 -4.700391 -3.15715 4.118919 -3.244615 -1.937976 1.729972 -5.292683 -4.125909 -4.147271 -4.121592 -1.373362 -4.159112 -4.060515 -0.1462335 -4.150563 -3.618028 0.5401197 -3.015826 -5.241636 2.260187 -1.788296 -6.081012 2.878832 -4.134563 -3.557517 -1.924079 -3.022532 -4.915496 -3.078181 -1.790876 -5.527548 -4.071263 4.147274 -4.121594 -1.373361 4.159116 -4.060515 -0.1462335 -0.004371583 -6.488718 3.169844 4.150568 -3.618029 0.5401249 3.015826 -5.241637 2.260189 1.7883 -6.081009 2.878826 -0.004373311 -5.946491 -4.268551 4.134575 -3.557517 -1.924088 3.022532 -4.915498 -3.078184 1.790877 -5.527544 -4.071261 -4.221275 -3.937128 -0.2082455 -4.221476 -3.980993 -1.365349 -3.012656 -5.18295 2.39575 -4.223123 -3.440117 0.5641393 -1.786826 -6.020061 3.012404 -0.004388868 -6.426974 3.303555 -3.011596 -4.833142 -3.198081 -4.223134 -3.350306 -1.956997 -1.786552 -5.438249 -4.186213 -0.004364073 -5.860539 -4.383982 4.22127 -3.938839 -0.2077143 4.22132 -3.98251 -1.365849 3.012669 -5.183324 2.395709 4.223568 -3.441947 0.5648836 1.786818 -6.020154 3.012379 3.011887 -4.83384 -3.197704 4.223555 -3.352232 -1.958076 1.786338 -5.438616 -4.186238 -3.010686 -5.764376 -1.579404 -3.010555 -5.765677 0.6897579 -1.785373 -6.730051 -2.218856 -1.785402 -6.747545 1.031757 -0.004330158 -7.196845 -2.218805 -0.004329562 -7.222235 1.189511 3.010763 -5.764376 -1.579404 3.010632 -5.765677 0.6897579 1.785461 -6.730046 -2.218855 1.78549 -6.74754 1.031755 -4.150022 -3.966476 -1.440264 -4.160614 -3.904484 -0.210731 -3.022791 -5.084281 2.19565 -4.158467 -3.461431 0.4693517 -1.790343 -5.925786 2.81513 -0.004335939 -6.334256 3.107042 -3.027163 -4.758834 -3.143761 -4.133359 -3.400935 -2.002961 -1.796463 -5.374024 -4.140793 -0.004339396 -5.793917 -4.339005 4.15011 -3.966476 -1.440277 4.160696 -3.904486 -0.2107293 3.022873 -5.084281 2.195651 4.158547 -3.461431 0.4693529 1.79043 -5.925786 2.815133 3.027245 -4.758834 -3.14376 4.133437 -3.400937 -2.002965 1.796549 -5.374026 -4.140797 -4.14751 -3.834254 -0.2206083 -4.14779 -3.877947 -1.361506 -2.970968 -5.051275 2.317628 -4.149046 -3.344485 0.5319274 -1.772865 -5.871964 2.920985 -0.026317 -6.271039 3.206158 -2.969784 -4.708968 -3.141656 -4.149571 -3.256467 -1.93224 -1.769571 -5.301593 -4.10991 -0.0263856 -5.716179 -4.30318 4.106051 -3.837271 -0.2196444 4.106379 -3.880802 -1.362653 2.928255 -5.051965 2.317651 4.107663 -3.347192 0.5320892 1.728926 -5.872164 2.921083 2.926718 -4.710216 -3.141971 4.108035 -3.259119 -1.932729 1.726552 -5.302369 -4.110072</float_array>
          <technique_common>
            <accessor source="#shield-mesh-positions-array" count="164" stride="3">
              <param name="X" type="float"/>
              <param name="Y" type="float"/>
              <param name="Z" type="float"/>
            </accessor>
          </technique_common>
        </source>
        <source id="shield-mesh-normals">
          <float_array id="shield-mesh-normals-array" count="492">-0.2079226 -0.9394513 -0.2723166 0.2203741 -0.9224525 0.3169347 0.3019806 -0.929075 0.213538 0.2128055 -0.976104 -0.04354989 0.2076784 -0.9394208 -0.2725913 0.483047 -0.7603992 -0.4340648 0.1117893 -0.8372143 -0.5352947 -0.2129886 -0.9760735 -0.04361093 0.127781 -0.7385174 0.661977 -0.2863246 -0.8901944 -0.3542894 -0.2240058 -0.9259316 0.3040254 -0.1198157 -0.7787408 0.6157414 -0.2299569 -0.9214454 -0.3130283 -0.2205572 -0.9224219 0.3169347 -0.3022248 -0.929014 0.2134464 -0.3780938 -0.8797265 -0.2882778 -0.1278115 -0.7386395 0.6618244 -0.1654408 -0.8261971 0.5385296 0.1325418 -0.7000336 0.7016816 0.119541 -0.7787408 0.6158025 -0.3021027 -0.8938567 -0.3312174 -0.483047 -0.7604297 -0.4339732 -0.112064 -0.8372143 -0.5352336 -0.1916257 -0.8578753 -0.4767602 -3.05185e-4 -0.8496658 0.5272988 -6.1037e-5 -0.6732078 0.739433 -3.96741e-4 -0.9631031 -0.2691122 -2.44148e-4 -0.8866848 -0.4623249 0.2856838 -0.8902249 -0.3547776 0.2239143 -0.9260231 0.3038423 0.3018891 -0.8940398 -0.3309427 0.1911374 -0.8578753 -0.4769433 0.1654103 -0.8263192 0.5382855 -0.1330301 -0.6997894 0.7018036 0.2297433 -0.9215369 -0.3129368 0.3775445 -0.8797265 -0.2889798 -0.9986877 -0.04928737 0.01156651 -0.9880673 -0.1109347 -0.1066316 -0.6509598 -0.07052826 0.7557909 -0.9008148 0.2910856 0.3220924 5.18815e-4 -0.3649098 0.9310282 -0.3799859 -0.2742393 0.8833888 -0.900235 0.3023774 -0.313242 -0.7070834 -0.1100803 -0.6984772 -0.3945128 -0.182226 -0.9006012 -7.93481e-4 -0.3136692 -0.9495224 0.9963073 -0.03054898 -0.0801416 0.9989929 0.04135257 -0.01657152 0.877224 0.3880123 0.2826624 0.6502579 -0.05066072 0.7579882 0.3804132 -0.2692648 0.8847316 0.691702 -0.0730918 -0.7184363 0.8779565 0.4044008 -0.2561113 0.4058352 -0.1627552 -0.8993194 -0.4549089 -0.8436537 -0.2850734 -5.49333e-4 -0.9576708 -0.2877895 -5.79852e-4 -0.9762261 0.2166509 -0.4533525 -0.8706626 0.1906796 -0.7532884 -0.6342052 -0.174047 -0.7602161 -0.6335032 0.1438032 0.4543595 -0.8439283 -0.2851344 0.4527726 -0.8709372 0.1907712 0.7602161 -0.6335032 0.1438032 0.7532884 -0.6342052 -0.174047 0.1811578 0.5131077 -0.8389539 0.2873318 0.5204932 -0.8040407 0.5962706 0.7764214 0.2039247 0.2059084 0.5653554 0.7986999 -0.744377 0.6330149 0.2125003 -0.8258004 0.5324565 -0.1857661 0.5765862 0.7683035 -0.2779015 0.6642964 0.668691 0.3339335 0.05542159 0.5070651 0.8601031 -0.002624571 0.4965972 0.8679464 -0.7165746 0.6278268 -0.3038117 -0.3463546 0.454329 -0.8207038 -0.2426221 0.4719992 -0.8475295 0.00100708 0.458388 -0.8887295 -0.8109378 0.5174413 0.2731407 0.6816614 0.6922513 -0.2368236 -0.2836085 0.5288248 0.7999207 -0.06814783 0.4965056 0.8653218 -0.2128055 0.976104 0.04354989 -0.3019806 0.929075 -0.213538 -0.2203741 0.9224525 -0.3169347 0.2079226 0.9394513 0.2723166 0.2129886 0.9760735 0.04361093 -0.1117893 0.8372143 0.5352947 -0.483047 0.7603992 0.4340648 -0.2076784 0.9394208 0.2725913 0.1198157 0.7787408 -0.6157414 0.2240058 0.9259316 -0.3040254 0.2863246 0.8901944 0.3542894 -0.127781 0.7385174 -0.661977 0.3780938 0.8797265 0.2882778 0.3022248 0.929014 -0.2134464 0.2205572 0.9224219 -0.3169347 0.2299569 0.9214454 0.3130283 -0.119541 0.7787408 -0.6158025 -0.1325418 0.7000336 -0.7016816 0.1654408 0.8261971 -0.5385296 0.1278115 0.7386395 -0.6618244 0.1916257 0.8578753 0.4767602 0.112064 0.8372143 0.5352336 0.483047 0.7604297 0.4339732 0.3021027 0.8938567 0.3312174 6.1037e-5 0.6732078 -0.739433 3.05185e-4 0.8496658 -0.5272988 2.44148e-4 0.8866848 0.4623249 3.96741e-4 0.9631031 0.2691122 -0.2239143 0.9260231 -0.3038423 -0.2856838 0.8902249 0.3547776 -0.1911374 0.8578753 0.4769433 -0.3018891 0.8940398 0.3309427 0.1330301 0.6997894 -0.7018036 -0.1654103 0.8263192 -0.5382855 -0.3775445 0.8797265 0.2889798 -0.2297433 0.9215369 0.3129368 0.9880673 0.1109347 0.1066316 0.9986877 0.04928737 -0.01156651 0.9008148 -0.2910856 -0.3220924 0.6509598 0.07052826 -0.7557909 0.3799859 0.2742393 -0.8833888 -5.18815e-4 0.3649098 -0.9310282 0.7070834 0.1100803 0.6984772 0.900235 -0.3023774 0.313242 7.93481e-4 0.3136692 0.9495224 0.3945128 0.182226 0.9006012 -0.9989929 -0.04135257 0.01657152 -0.9963073 0.03054898 0.0801416 -0.6502579 0.05066072 -0.7579882 -0.877224 -0.3880123 -0.2826624 -0.3804132 0.2692648 -0.8847316 -0.8779565 -0.4044008 0.2561113 -0.691702 0.0730918 0.7184363 -0.4058352 0.1627552 0.8993194 0.4533525 0.8706626 -0.1906796 5.79852e-4 0.9762261 -0.2166509 5.49333e-4 0.9576708 0.2877895 0.4549089 0.8436537 0.2850734 0.7602161 0.6335032 -0.1438032 0.7532884 0.6342052 0.174047 -0.4527726 0.8709372 -0.1907712 -0.4543595 0.8439283 0.2851344 -0.7532884 0.6342052 0.174047 -0.7602161 0.6335032 -0.1438032 -0.2873318 -0.5204932 0.8040407 -0.1811578 -0.5131077 0.8389539 -0.2059084 -0.5653554 -0.7986999 -0.5962706 -0.7764214 -0.2039247 0.8258004 -0.5324565 0.1857661 0.744377 -0.6330149 -0.2125003 -0.6642964 -0.668691 -0.3339335 -0.5765862 -0.7683035 0.2779015 0.002624571 -0.4965972 -0.8679464 -0.05542159 -0.5070651 -0.8601031 0.3463546 -0.454329 0.8207038 0.7165746 -0.6278268 0.3038117 -0.00100708 -0.458388 0.8887295 0.2426221 -0.4719992 0.8475295 0.8109378 -0.5174413 -0.2731407 -0.6816614 -0.6922513 0.2368236 0.2836085 -0.5288248 -0.7999207 0.06814783 -0.4965056 -0.8653218</float_array>
          <technique_common>
            <accessor source="#shield-mesh-normals-array" count="164" stride="3">
              <param name="X" type="float"/>
              <param name="Y" type="float"/>
              <param name="Z" type="float"/>
            </accessor>
          </technique_common>
        </source>
        <source id="shield-mesh-map-0">
          <float_array id="shield-mesh-map-0-array" count="1152">0.4773559 0.2003559 0.5242143 0.2041878 0.5240172 0.210573 0.484902 0.2104151 0.128495 0.2019414 0.1855314 0.205534 0.1804149 0.2106818 0.123435 0.2105221 0.9108807 0.1991437 0.9617205 0.2009779 0.963945 0.2075933 0.9118799 0.2057055 0.0615251 0.1958182 0.09320801 0.1995837 0.0935117 0.2058855 0.05749928 0.1994388 0.09320801 0.1995837 0.128495 0.2019414 0.123435 0.2105221 0.0935117 0.2058855 0.03612118 0.1979587 0.0615251 0.1958182 0.05749928 0.1994388 0.0297023 0.2020314 0.6841448 0.2101867 0.740462 0.2103356 0.7367523 0.2179102 0.6805689 0.2160593 0.3489873 0.2028648 0.406086 0.1979852 0.4130105 0.2037079 0.3539459 0.2093253 0.740462 0.2103356 0.7973209 0.2073403 0.7955947 0.2140004 0.7367523 0.2179102 0.2919921 0.2083336 0.3489873 0.2028648 0.3539459 0.2093253 0.2929043 0.2158547 0.6122962 0.2077265 0.6841448 0.2101867 0.6805689 0.2160593 0.6218048 0.2166887 0.1855314 0.205534 0.2372782 0.209179 0.2341076 0.2158908 0.1804149 0.2106818 0.8544632 0.2012421 0.9108807 0.1991437 0.9118799 0.2057055 0.854308 0.2085313 0.406086 0.1979852 0.4773559 0.2003559 0.484902 0.2104151 0.4130105 0.2037079 0.5632548 0.2034592 0.6122962 0.2077265 0.6218048 0.2166887 0.5679074 0.2071754 0.2372782 0.209179 0.2919921 0.2083336 0.2929043 0.2158547 0.2341076 0.2158908 0.5242143 0.2041878 0.5632548 0.2034592 0.5679074 0.2071754 0.5240172 0.210573 0.7973209 0.2073403 0.8544632 0.2012421 0.854308 0.2085313 0.7955947 0.2140004 0.5632548 0.2034592 0.5242143 0.2041878 0.5261285 0.1975445 0.5658965 0.1985328 0.4773559 0.2003559 0.406086 0.1979852 0.4044576 0.1911574 0.4790859 0.1886693 0.3489873 0.2028648 0.2919921 0.2083336 0.2911568 0.2006328 0.347359 0.1952204 0.406086 0.1979852 0.3489873 0.2028648 0.347359 0.1952204 0.4044576 0.1911574 0.5242143 0.2041878 0.4773559 0.2003559 0.4790859 0.1886693 0.5261285 0.1975445 0.6841448 0.2101867 0.6122962 0.2077265 0.6154173 0.1943439 0.6871396 0.2044336 0.7973209 0.2073403 0.740462 0.2103356 0.7437821 0.2028726 0.7990041 0.2008753 0.740462 0.2103356 0.6841448 0.2101867 0.6871396 0.2044336 0.7437821 0.2028726 0.6122962 0.2077265 0.5632548 0.2034592 0.5658965 0.1985328 0.6154173 0.1943439 0.09320801 0.1995837 0.0615251 0.1958182 0.05908685 0.1902139 0.09161925 0.1929737 0.1855314 0.205534 0.128495 0.2019414 0.1265259 0.1911768 0.1860049 0.1990574 0.2919921 0.2083336 0.2372782 0.209179 0.2373371 0.2015752 0.2911568 0.2006328 0.2372782 0.209179 0.1855314 0.205534 0.1860049 0.1990574 0.2373371 0.2015752 0.128495 0.2019414 0.09320801 0.1995837 0.09161925 0.1929737 0.1265259 0.1911768 0.9617205 0.2009779 0.9108807 0.1991437 0.91053 0.1927664 0.9698308 0.1949672 0.8544632 0.2012421 0.7973209 0.2073403 0.7990041 0.2008753 0.854952 0.1941171 0.9108807 0.1991437 0.8544632 0.2012421 0.854952 0.1941171 0.91053 0.1927664 0.0615251 0.1958182 0.03612118 0.1979587 0.027812 0.1910487 0.05908685 0.1902139 0.3703166 0.5487385 0.5002023 0.5595216 0.4966413 0.7987509 0.3611544 0.7849763 0.07602167 0.5738544 0.2498381 0.583561 0.2414652 0.7586436 0.06074351 0.6806619 0.2498381 0.583561 0.3703166 0.5487385 0.3611544 0.7849763 0.2414652 0.7586436 0.2414652 0.7586436 0.3611544 0.7849763 0.3351976 0.9404553 0.2021203 0.8912201 0.06074351 0.6806619 0.2414652 0.7586436 0.2021203 0.8912201 0.02636379 0.7420452 0.3611544 0.7849763 0.4966413 0.7987509 0.4941704 0.9615343 0.3351976 0.9404553 0.3703166 0.5487385 0.2498381 0.583561 0.20866 0.4364888 0.3410866 0.3675552 0.2498381 0.583561 0.07602167 0.5738544 0.04229199 0.5132092 0.20866 0.4364888 0.5002023 0.5595216 0.3703166 0.5487385 0.3410866 0.3675552 0.5031234 0.3579357 0.6309239 0.5525726 0.6330884 0.7889898 0.4966413 0.7987509 0.5002023 0.5595216 0.9243526 0.5863814 0.9364696 0.6935998 0.7535104 0.7662097 0.7503194 0.5909474 0.7503194 0.5909474 0.7535104 0.7662097 0.6330884 0.7889898 0.6309239 0.5525726 0.7535104 0.7662097 0.7889187 0.8999055 0.6544265 0.945186 0.6330884 0.7889898 0.9364696 0.6935998 0.9690227 0.7559772 0.7889187 0.8999055 0.7535104 0.7662097 0.6330884 0.7889898 0.6544265 0.945186 0.4941704 0.9615343 0.4966413 0.7987509 0.6309239 0.5525726 0.6669312 0.3311373 0.7958232 0.4451573 0.7503194 0.5909474 0.7503194 0.5909474 0.7958232 0.4451573 0.9598584 0.5267564 0.9243526 0.5863814 0.5002023 0.5595216 0.5031234 0.3579357 0.6669312 0.3311373 0.6309239 0.5525726 0.91053 0.1927664 0.854952 0.1941171 0.8570878 0.1871932 0.9134324 0.18584 0.1860049 0.1990574 0.1265259 0.1911768 0.1248854 0.1829516 0.1818069 0.1903787 0.5261285 0.1975445 0.4790859 0.1886693 0.4812144 0.1808267 0.5267395 0.1913394 0.05908685 0.1902139 0.027812 0.1910487 0.02461302 0.184908 0.05682849 0.1841529 0.2911568 0.2006328 0.2373371 0.2015752 0.2353965 0.1938996 0.2913309 0.1924629 0.6871396 0.2044336 0.6154173 0.1943439 0.6181419 0.1864514 0.6853917 0.1960335 0.2373371 0.2015752 0.1860049 0.1990574 0.1818069 0.1903787 0.2353965 0.1938996 0.7990041 0.2008753 0.7437821 0.2028726 0.743448 0.1961138 0.7999728 0.1932029 0.5658965 0.1985328 0.5261285 0.1975445 0.5267395 0.1913394 0.5688245 0.1922881 0.1265259 0.1911768 0.09161925 0.1929737 0.0909053 0.1861235 0.1248854 0.1829516 0.7437821 0.2028726 0.6871396 0.2044336 0.6853917 0.1960335 0.743448 0.1961138 0.4790859 0.1886693 0.4044576 0.1911574 0.4106753 0.1825948 0.4812144 0.1808267 0.9698308 0.1949672 0.91053 0.1927664 0.9134324 0.18584 0.9712836 0.1878597 0.6154173 0.1943439 0.5658965 0.1985328 0.5688245 0.1922881 0.6181419 0.1864514 0.347359 0.1952204 0.2911568 0.2006328 0.2913309 0.1924629 0.3499986 0.1873497 0.854952 0.1941171 0.7990041 0.2008753 0.7999728 0.1932029 0.8570878 0.1871932 0.09161925 0.1929737 0.05908685 0.1902139 0.05682849 0.1841529 0.0909053 0.1861235 0.4044576 0.1911574 0.347359 0.1952204 0.3499986 0.1873497 0.4106753 0.1825948 0.484902 0.2104151 0.5240172 0.210573 0.5242143 0.2041878 0.4773559 0.2003559 0.123435 0.2105221 0.1804149 0.2106818 0.1855314 0.205534 0.128495 0.2019414 0.9118799 0.2057055 0.963945 0.2075933 0.9617205 0.2009779 0.9108807 0.1991437 0.05749928 0.1994388 0.0935117 0.2058855 0.09320801 0.1995837 0.0615251 0.1958182 0.0935117 0.2058855 0.123435 0.2105221 0.128495 0.2019414 0.09320801 0.1995837 0.0297023 0.2020314 0.05749928 0.1994388 0.0615251 0.1958182 0.03612118 0.1979587 0.6805689 0.2160593 0.7367523 0.2179102 0.740462 0.2103356 0.6841448 0.2101867 0.3539459 0.2093253 0.4130105 0.2037079 0.406086 0.1979852 0.3489873 0.2028648 0.7367523 0.2179102 0.7955947 0.2140004 0.7973209 0.2073403 0.740462 0.2103356 0.2929043 0.2158547 0.3539459 0.2093253 0.3489873 0.2028648 0.2919921 0.2083336 0.6218048 0.2166887 0.6805689 0.2160593 0.6841448 0.2101867 0.6122962 0.2077265 0.1804149 0.2106818 0.2341076 0.2158908 0.2372782 0.209179 0.1855314 0.205534 0.854308 0.2085313 0.9118799 0.2057055 0.9108807 0.1991437 0.8544632 0.2012421 0.4130105 0.2037079 0.484902 0.2104151 0.4773559 0.2003559 0.406086 0.1979852 0.5679074 0.2071754 0.6218048 0.2166887 0.6122962 0.2077265 0.5632548 0.2034592 0.2341076 0.2158908 0.2929043 0.2158547 0.2919921 0.2083336 0.2372782 0.209179 0.5240172 0.210573 0.5679074 0.2071754 0.5632548 0.2034592 0.5242143 0.2041878 0.7955947 0.2140004 0.854308 0.2085313 0.8544632 0.2012421 0.7973209 0.2073403 0.5658965 0.1985328 0.5261285 0.1975445 0.5242143 0.2041878 0.5632548 0.2034592 0.4790859 0.1886693 0.4044576 0.1911574 0.406086 0.1979852 0.4773559 0.2003559 0.347359 0.1952204 0.2911568 0.2006328 0.2919921 0.2083336 0.3489873 0.2028648 0.4044576 0.1911574 0.347359 0.1952204 0.3489873 0.2028648 0.406086 0.1979852 0.5261285 0.1975445 0.4790859 0.1886693 0.4773559 0.2003559 0.5242143 0.2041878 0.6871396 0.2044336 0.6154173 0.1943439 0.6122962 0.2077265 0.6841448 0.2101867 0.7990041 0.2008753 0.7437821 0.2028726 0.740462 0.2103356 0.7973209 0.2073403 0.7437821 0.2028726 0.6871396 0.2044336 0.6841448 0.2101867 0.740462 0.2103356 0.6154173 0.1943439 0.5658965 0.1985328 0.5632548 0.2034592 0.6122962 0.2077265 0.09161925 0.1929737 0.05908685 0.1902139 0.0615251 0.1958182 0.09320801 0.1995837 0.1860049 0.1990574 0.1265259 0.1911768 0.128495 0.2019414 0.1855314 0.205534 0.2911568 0.2006328 0.2373371 0.2015752 0.2372782 0.209179 0.2919921 0.2083336 0.2373371 0.2015752 0.1860049 0.1990574 0.1855314 0.205534 0.2372782 0.209179 0.1265259 0.1911768 0.09161925 0.1929737 0.09320801 0.1995837 0.128495 0.2019414 0.9698308 0.1949672 0.91053 0.1927664 0.9108807 0.1991437 0.9617205 0.2009779 0.854952 0.1941171 0.7990041 0.2008753 0.7973209 0.2073403 0.8544632 0.2012421 0.91053 0.1927664 0.854952 0.1941171 0.8544632 0.2012421 0.9108807 0.1991437 0.05908685 0.1902139 0.027812 0.1910487 0.03612118 0.1979587 0.0615251 0.1958182 0.3611544 0.7849763 0.4966413 0.7987509 0.5002023 0.5595216 0.3703166 0.5487385 0.06074351 0.6806619 0.2414652 0.7586436 0.2498381 0.583561 0.07602167 0.5738544 0.2414652 0.7586436 0.3611544 0.7849763 0.3703166 0.5487385 0.2498381 0.583561 0.2021203 0.8912201 0.3351976 0.9404553 0.3611544 0.7849763 0.2414652 0.7586436 0.02636379 0.7420452 0.2021203 0.8912201 0.2414652 0.7586436 0.06074351 0.6806619 0.3351976 0.9404553 0.4941704 0.9615343 0.4966413 0.7987509 0.3611544 0.7849763 0.3410866 0.3675552 0.20866 0.4364888 0.2498381 0.583561 0.3703166 0.5487385 0.20866 0.4364888 0.04229199 0.5132092 0.07602167 0.5738544 0.2498381 0.583561 0.5031234 0.3579357 0.3410866 0.3675552 0.3703166 0.5487385 0.5002023 0.5595216 0.5002023 0.5595216 0.4966413 0.7987509 0.6330884 0.7889898 0.6309239 0.5525726 0.7503194 0.5909474 0.7535104 0.7662097 0.9364696 0.6935998 0.9243526 0.5863814 0.6309239 0.5525726 0.6330884 0.7889898 0.7535104 0.7662097 0.7503194 0.5909474 0.6330884 0.7889898 0.6544265 0.945186 0.7889187 0.8999055 0.7535104 0.7662097 0.7535104 0.7662097 0.7889187 0.8999055 0.9690227 0.7559772 0.9364696 0.6935998 0.4966413 0.7987509 0.4941704 0.9615343 0.6544265 0.945186 0.6330884 0.7889898 0.7503194 0.5909474 0.7958232 0.4451573 0.6669312 0.3311373 0.6309239 0.5525726 0.9243526 0.5863814 0.9598584 0.5267564 0.7958232 0.4451573 0.7503194 0.5909474 0.6309239 0.5525726 0.6669312 0.3311373 0.5031234 0.3579357 0.5002023 0.5595216 0.9134324 0.18584 0.8570878 0.1871932 0.854952 0.1941171 0.91053 0.1927664 0.1818069 0.1903787 0.1248854 0.1829516 0.1265259 0.1911768 0.1860049 0.1990574 0.5267395 0.1913394 0.4812144 0.1808267 0.4790859 0.1886693 0.5261285 0.1975445 0.05682849 0.1841529 0.02461302 0.184908 0.027812 0.1910487 0.05908685 0.1902139 0.2913309 0.1924629 0.2353965 0.1938996 0.2373371 0.2015752 0.2911568 0.2006328 0.6853917 0.1960335 0.6181419 0.1864514 0.6154173 0.1943439 0.6871396 0.2044336 0.2353965 0.1938996 0.1818069 0.1903787 0.1860049 0.1990574 0.2373371 0.2015752 0.7999728 0.1932029 0.743448 0.1961138 0.7437821 0.2028726 0.7990041 0.2008753 0.5688245 0.1922881 0.5267395 0.1913394 0.5261285 0.1975445 0.5658965 0.1985328 0.1248854 0.1829516 0.0909053 0.1861235 0.09161925 0.1929737 0.1265259 0.1911768 0.743448 0.1961138 0.6853917 0.1960335 0.6871396 0.2044336 0.7437821 0.2028726 0.4812144 0.1808267 0.4106753 0.1825948 0.4044576 0.1911574 0.4790859 0.1886693 0.9712836 0.1878597 0.9134324 0.18584 0.91053 0.1927664 0.9698308 0.1949672 0.6181419 0.1864514 0.5688245 0.1922881 0.5658965 0.1985328 0.6154173 0.1943439 0.3499986 0.1873497 0.2913309 0.1924629 0.2911568 0.2006328 0.347359 0.1952204 0.8570878 0.1871932 0.7999728 0.1932029 0.7990041 0.2008753 0.854952 0.1941171 0.0909053 0.1861235 0.05682849 0.1841529 0.05908685 0.1902139 0.09161925 0.1929737 0.4106753 0.1825948 0.3499986 0.1873497 0.347359 0.1952204 0.4044576 0.1911574</float_array>
          <technique_common>
            <accessor source="#shield-mesh-map-0-array" count="576" stride="2">
              <param name="S" type="float"/>
              <param name="T" type="float"/>
            </accessor>
          </technique_common>
        </source>
        <vertices id="shield-mesh-vertices">
          <input semantic="POSITION" source="#shield-mesh-positions"/>
        </vertices>
        <polylist material="Material_003-material" count="144">
          <input semantic="VERTEX" source="#shield-mesh-vertices" offset="0"/>
          <input semantic="NORMAL" source="#shield-mesh-normals" offset="1"/>
          <input semantic="TEXCOORD" source="#shield-mesh-map-0" offset="2" set="0"/>
          <vcount>4 4 4 4 4 4 4 4 4 4 4 4 4 4 4 4 4 4 4 4 4 4 4 4 4 4 4 4 4 4 4 4 4 4 4 4 4 4 4 4 4 4 4 4 4 4 4 4 4 4 4 4 4 4 4 4 4 4 4 4 4 4 4 4 4 4 4 4 4 4 4 4 4 4 4 4 4 4 4 4 4 4 4 4 4 4 4 4 4 4 4 4 4 4 4 4 4 4 4 4 4 4 4 4 4 4 4 4 4 4 4 4 4 4 4 4 4 4 4 4 4 4 4 4 4 4 4 4 4 4 4 4 4 4 4 4 4 4 4 4 4 4 4 4 </vcount>
          <p>2 0 0 1 1 1 47 2 2 49 3 3 11 4 4 12 5 5 58 6 6 59 7 7 16 8 8 15 9 9 62 10 10 61 11 11 8 12 12 9 13 13 57 14 14 56 15 15 9 13 16 11 4 17 59 7 18 57 14 19 15 9 20 8 12 21 56 15 22 62 10 23 6 16 24 7 17 25 54 18 26 52 19 27 4 20 28 3 21 29 48 22 30 50 23 31 7 17 32 14 24 33 55 25 34 54 18 35 10 26 36 4 20 37 50 23 38 51 27 39 5 28 40 6 16 41 52 19 42 53 29 43 12 5 44 13 30 45 60 31 46 58 6 47 17 32 48 16 8 49 61 11 50 63 33 51 3 21 52 2 0 53 49 3 54 48 22 55 0 34 56 5 28 57 53 29 58 46 35 59 13 30 60 10 26 61 51 27 62 60 31 63 1 1 64 0 34 65 46 35 66 47 2 67 14 24 68 17 32 69 63 33 70 55 25 71 0 34 72 1 1 73 18 36 74 19 37 75 2 0 76 3 21 77 20 38 78 21 39 79 4 20 80 10 26 81 23 40 82 22 41 83 3 21 84 4 20 85 22 41 86 20 38 87 1 1 88 2 0 89 21 39 90 18 36 91 6 16 92 5 28 93 25 42 94 24 43 95 14 24 96 7 17 97 26 44 98 27 45 99 7 17 100 6 16 101 24 43 102 26 44 103 5 28 104 0 34 105 19 37 106 25 42 107 9 13 108 8 12 109 29 46 110 28 47 111 12 5 112 11 4 113 31 48 114 30 49 115 10 26 116 13 30 117 32 50 118 23 40 119 13 30 120 12 5 121 30 49 122 32 50 123 11 4 124 9 13 125 28 47 126 31 48 127 15 9 128 16 8 129 33 51 130 34 52 131 17 32 132 14 24 133 27 45 134 35 53 135 16 8 136 17 32 137 35 53 138 33 51 139 8 12 140 15 9 141 34 52 142 29 46 143 38 54 144 40 55 145 41 56 146 39 57 147 46 35 148 36 58 149 37 59 150 47 2 151 36 58 152 38 54 153 39 57 154 37 59 155 37 59 156 39 57 157 50 23 158 48 22 159 47 2 160 37 59 161 48 22 162 49 3 163 39 57 164 41 56 165 51 27 166 50 23 167 38 54 168 36 58 169 52 19 170 54 18 171 36 58 172 46 35 173 53 29 174 52 19 175 40 55 176 38 54 177 54 18 178 55 25 179 44 60 180 45 61 181 41 56 182 40 55 183 56 15 184 57 14 185 43 62 186 42 63 187 42 63 188 43 62 189 45 61 190 44 60 191 43 62 192 58 6 193 60 31 194 45 61 195 57 14 196 59 7 197 58 6 198 43 62 199 45 61 200 60 31 201 51 27 202 41 56 203 44 60 204 63 33 205 61 11 206 42 63 207 42 63 208 61 11 209 62 10 210 56 15 211 40 55 212 55 25 213 63 33 214 44 60 215 33 51 216 35 53 217 81 64 218 79 65 219 30 49 220 31 48 221 77 66 222 76 67 223 18 36 224 21 39 225 67 68 226 64 69 227 29 46 228 34 52 229 80 70 230 75 71 231 23 40 232 32 50 233 78 72 234 69 73 235 24 43 236 25 42 237 71 74 238 70 75 239 32 50 240 30 49 241 76 67 242 78 72 243 27 45 244 26 44 245 72 76 246 73 77 247 19 37 248 18 36 249 64 69 250 65 78 251 31 48 252 28 47 253 74 79 254 77 66 255 26 44 256 24 43 257 70 75 258 72 76 259 21 39 260 20 38 261 66 80 262 67 68 263 34 52 264 33 51 265 79 65 266 80 70 267 25 42 268 19 37 269 65 78 270 71 74 271 22 41 272 23 40 273 69 73 274 68 81 275 35 53 276 27 45 277 73 77 278 81 64 279 28 47 280 29 46 281 75 71 282 74 79 283 20 38 284 22 41 285 68 81 286 66 80 287 131 82 288 129 83 289 83 84 290 84 85 291 141 86 292 140 87 293 94 88 294 93 89 295 143 90 296 144 91 297 97 92 298 98 93 299 138 94 300 139 95 301 91 96 302 90 97 303 139 95 304 141 86 305 93 89 306 91 96 307 144 91 308 138 94 309 90 97 310 97 92 311 134 98 312 136 99 313 89 100 314 88 101 315 132 102 316 130 103 317 85 104 318 86 105 319 136 99 320 137 106 321 96 107 322 89 100 323 133 108 324 132 102 325 86 105 326 92 109 327 135 110 328 134 98 329 88 101 330 87 111 331 140 87 332 142 112 333 95 113 334 94 88 335 145 114 336 143 90 337 98 93 338 99 115 339 130 103 340 131 82 341 84 85 342 85 104 343 128 116 344 135 110 345 87 111 346 82 117 347 142 112 348 133 108 349 92 109 350 95 113 351 129 83 352 128 116 353 82 117 354 83 84 355 137 106 356 145 114 357 99 115 358 96 107 359 101 118 360 100 119 361 83 84 362 82 117 363 103 120 364 102 121 365 85 104 366 84 85 367 104 122 368 105 123 369 92 109 370 86 105 371 102 121 372 104 122 373 86 105 374 85 104 375 100 119 376 103 120 377 84 85 378 83 84 379 106 124 380 107 125 381 87 111 382 88 101 383 109 126 384 108 127 385 89 100 386 96 107 387 108 127 388 106 124 389 88 101 390 89 100 391 107 125 392 101 118 393 82 117 394 87 111 395 110 128 396 111 129 397 90 97 398 91 96 399 112 130 400 113 131 401 93 89 402 94 88 403 105 123 404 114 132 405 95 113 406 92 109 407 114 132 408 112 130 409 94 88 410 95 113 411 113 131 412 110 128 413 91 96 414 93 89 415 116 133 416 115 134 417 98 93 418 97 92 419 117 135 420 109 126 421 96 107 422 99 115 423 115 134 424 117 135 425 99 115 426 98 93 427 111 129 428 116 133 429 97 92 430 90 97 431 121 136 432 123 137 433 122 138 434 120 139 435 129 83 436 119 140 437 118 141 438 128 116 439 119 140 440 121 136 441 120 139 442 118 141 443 130 103 444 132 102 445 121 136 446 119 140 447 131 82 448 130 103 449 119 140 450 129 83 451 132 102 452 133 108 453 123 137 454 121 136 455 136 99 456 134 98 457 118 141 458 120 139 459 134 98 460 135 110 461 128 116 462 118 141 463 137 106 464 136 99 465 120 139 466 122 138 467 122 138 468 123 137 469 127 142 470 126 143 471 124 144 472 125 145 473 139 95 474 138 94 475 126 143 476 127 142 477 125 145 478 124 144 479 127 142 480 142 112 481 140 87 482 125 145 483 125 145 484 140 87 485 141 86 486 139 95 487 123 137 488 133 108 489 142 112 490 127 142 491 124 144 492 143 90 493 145 114 494 126 143 495 138 94 496 144 91 497 143 90 498 124 144 499 126 143 500 145 114 501 137 106 502 122 138 503 161 146 504 163 147 505 117 135 506 115 134 507 158 148 508 159 149 509 113 131 510 112 130 511 146 150 512 149 151 513 103 120 514 100 119 515 157 152 516 162 153 517 116 133 518 111 129 519 151 154 520 160 155 521 114 132 522 105 123 523 152 156 524 153 157 525 107 125 526 106 124 527 160 155 528 158 148 529 112 130 530 114 132 531 155 158 532 154 159 533 108 127 534 109 126 535 147 160 536 146 150 537 100 119 538 101 118 539 159 149 540 156 161 541 110 128 542 113 131 543 154 159 544 152 156 545 106 124 546 108 127 547 149 151 548 148 162 549 102 121 550 103 120 551 162 153 552 161 146 553 115 134 554 116 133 555 153 157 556 147 160 557 101 118 558 107 125 559 150 163 560 151 154 561 105 123 562 104 122 563 163 147 564 155 158 565 109 126 566 117 135 567 156 161 568 157 152 569 111 129 570 110 128 571 148 162 572 150 163 573 104 122 574 102 121 575</p>
        </polylist>
      </mesh>
      <extra><technique profile="MAYA"><double_sided>1</double_sided></technique></extra>
    </geometry>
  </library_geometries>
  <library_visual_scenes>
    <visual_scene id="Scene" name="Scene">
      <node id="shield" name="shield" type="NODE">
        <translate sid="location">0 0 0</translate>
        <rotate sid="rotationZ">0 0 1 0</rotate>
        <rotate sid="rotationY">0 1 0 0</rotate>
        <rotate sid="rotationX">1 0 0 0</rotate>
        <scale sid="scale">1 1 1</scale>
        <instance_geometry url="#shield-mesh">
          <bind_material>
            <technique_common>
              <instance_material symbol="Material_003-material" target="#Material_003-material"/>
            </technique_common>
          </bind_material>
        </instance_geometry>
      </node>
    </visual_scene>
  </library_visual_scenes>
  <scene>
    <instance_visual_scene url="#Scene"/>
  </scene>
</COLLADA>