<?xml version="1.0" encoding="utf-8"?>
<COLLADA xmlns="http://www.collada.org/2005/11/COLLADASchema" version="1.4.1">
  <asset>
    <contributor>
      <author>Blender User</author>
      <authoring_tool>Blender 2.64.0 r51232</authoring_tool>
    </contributor>
    <created>2013-03-26T09:00:22</created>
    <modified>2013-03-26T09:00:22</modified>
    <unit name="meter" meter="1"/>
    <up_axis>Z_UP</up_axis>
  </asset>
  <library_images/>
  <library_effects>
    <effect id="Material_002-effect">
      <profile_COMMON>
        <technique sid="common">
          <phong>
            <emission>
              <color sid="emission">0 0 0 1</color>
            </emission>
            <ambient>
              <color sid="ambient">0 0 0 1</color>
            </ambient>
            <diffuse>
              <color sid="diffuse">0.512 0.512 0.512 1</color>
            </diffuse>
            <specular>
              <color sid="specular">0.25 0.25 0.25 1</color>
            </specular>
            <shininess>
              <float sid="shininess">50</float>
            </shininess>
            <index_of_refraction>
              <float sid="index_of_refraction">1</float>
            </index_of_refraction>
          </phong>
        </technique>
        <extra>
          <technique profile="GOOGLEEARTH">
            <double_sided>1</double_sided>
          </technique>
        </extra>
      </profile_COMMON>
      <extra><technique profile="MAX3D"><double_sided>1</double_sided></technique></extra>
    </effect>
  </library_effects>
  <library_materials>
    <material id="Material_002-material" name="Material_002-material">
      <instance_effect url="#Material_002-effect"/>
    </material>
  </library_materials>
  <library_geometries>
    <geometry id="SmallAsteroidCollision-mesh" name="SmallAsteroidCollision">
      <mesh>
        <source id="SmallAsteroidCollision-mesh-positions">
          <float_array id="SmallAsteroidCollision-mesh-positions-array" count="30">-1.211894 0.2071485 -1.403038 0.6014685 1.169499 -1.06258 1.838674 -0.4642146 -0.8147516 -0.4372667 -1.068216 -1.141983 0.754966 1.008901 1.305128 -1.47196 0.3346225 0.877728 -0.159578 -1.820112 -0.2522301 1.229769 -0.04773312 1.460608 0.5195245 -1.008621 -1.554854 0.6064381 -1.470669 0.9251446</float_array>
          <technique_common>
            <accessor source="#SmallAsteroidCollision-mesh-positions-array" count="10" stride="3">
              <param name="X" type="float"/>
              <param name="Y" type="float"/>
              <param name="Z" type="float"/>
            </accessor>
          </technique_common>
        </source>
        <source id="SmallAsteroidCollision-mesh-normals">
          <float_array id="SmallAsteroidCollision-mesh-normals-array" count="48">-0.5558921 -0.6256117 0.5473518 -0.3981442 0.2164476 -0.8914211 -0.2035079 0.05241346 0.9776694 -0.2378007 -0.2491168 0.9388245 0.4901877 -0.8312218 -0.2622719 0.4217791 0.1847544 -0.8876758 -0.2073622 -0.7781468 -0.5928646 0.8911987 0.4241338 0.1608585 0.5386705 -0.836288 -0.1022573 -0.3035087 0.9491141 0.08405315 0.218219 -0.06674832 -0.9736145 0.7979441 0.6026335 -0.01085472 -0.4515105 0.8865274 -0.1010324 -0.8680945 -0.4912184 -0.07153028 -0.8189458 -0.5381853 -0.1992095 0.8235784 -0.4765372 0.3076215</float_array>
          <technique_common>
            <accessor source="#SmallAsteroidCollision-mesh-normals-array" count="16" stride="3">
              <param name="X" type="float"/>
              <param name="Y" type="float"/>
              <param name="Z" type="float"/>
            </accessor>
          </technique_common>
        </source>
        <vertices id="SmallAsteroidCollision-mesh-vertices">
          <input semantic="POSITION" source="#SmallAsteroidCollision-mesh-positions"/>
        </vertices>
        <polylist material="Material_002-material" count="16">
          <input semantic="VERTEX" source="#SmallAsteroidCollision-mesh-vertices" offset="0"/>
          <input semantic="NORMAL" source="#SmallAsteroidCollision-mesh-normals" offset="1"/>
          <vcount>3 3 3 3 3 3 3 3 3 3 3 3 3 3 3 3 </vcount>
          <p>5 0 6 0 9 0 8 1 3 1 1 1 4 2 5 2 7 2 5 3 9 3 7 3 6 4 8 4 2 4 1 5 2 5 8 5 6 6 3 6 8 6 2 7 4 7 7 7 9 8 6 8 2 8 5 9 4 9 1 9 0 10 1 10 3 10 1 11 4 11 2 11 0 12 5 12 1 12 5 13 0 13 6 13 6 14 0 14 3 14 2 15 7 15 9 15</p>
        </polylist>
      </mesh>
      <extra><technique profile="MAYA"><double_sided>1</double_sided></technique></extra>
    </geometry>
  </library_geometries>
  <library_visual_scenes>
    <visual_scene id="Scene" name="Scene">
      <node id="SmallAsteroidCollision" name="SmallAsteroidCollision" type="NODE">
        <translate sid="location">0 0 0</translate>
        <rotate sid="rotationZ">0 0 1 0</rotate>
        <rotate sid="rotationY">0 1 0 0</rotate>
        <rotate sid="rotationX">1 0 0 0</rotate>
        <scale sid="scale">1 1 1</scale>
        <instance_geometry url="#SmallAsteroidCollision-mesh">
          <bind_material>
            <technique_common>
              <instance_material symbol="Material_002-material" target="#Material_002-material"/>
            </technique_common>
          </bind_material>
        </instance_geometry>
      </node>
    </visual_scene>
  </library_visual_scenes>
  <scene>
    <instance_visual_scene url="#Scene"/>
  </scene>
</COLLADA>